FS22_RobertF2800                                   (1980   mulchers                  ROBERT               F2800                                         https://www.farming-simulator.com/mod.php?lang=en&country=us&mod_id=235659&title=fs2022)
FS22_Parker_6500                                   (1980   augerWagons               PARKER               6500 Grain Cart                               https://www.farming-simulator.com/mod.php?lang=en&country=us&mod_id=268051&title=fs2022)
FS22_MPLiftFrontloaders                            (1980   frontLoaders              MP_LIFT              240                                           https://www.farming-simulator.com/mod.php?lang=en&country=us&mod_id=230329&title=fs2022)
FS22_Landoll7431VT_33                              (1980   discHarrows               LANDOLL              7431VT 33FT                                   https://www.farming-simulator.com/mod.php?lang=en&country=us&mod_id=262459&title=fs2022)
FS22_AlpegoDF_Pack_Crossplay                       (1980   powerHarrows              ALPEGO               DF400                                         https://www.farming-simulator.com/mod.php?lang=en&country=us&mod_id=271773&title=fs2022)
FS22_strautmannStreublitzBE5                       (1980   manureSpreaders           STRAUTMANN           Streublitz BE 5                               https://www.farming-simulator.com/mod.php?lang=en&country=us&mod_id=270302&title=fs2022)
FS22_claas_e025                                    (1980   forageHarvesterCutters    CLAAS                E 025                                         https://www.farming-simulator.com/mod.php?lang=en&country=us&mod_id=275995&title=fs2022)
FS22_ROBERT_Handling_Pack                          (1980   teleLoaderTools           ROBERT               BGV                                           https://www.farming-simulator.com/mod.php?lang=en&country=us&mod_id=270063&title=fs2022)
FS22_MF4000Series                                  (1980   tractorsL                 MASSEYFERGUSON       4000 Series                                   https://www.farming-simulator.com/mod.php?lang=en&country=us&mod_id=236238&title=fs2022)
FS22_BizonPack                                     (1980   harvesters                FMZ                  BIZON REKORD                                  https://www.farming-simulator.com/mod.php?lang=en&country=us&mod_id=280667&title=fs2022)
FS22_JohnDeere_EYM148_And_158                      (1981   frontLoaderTools          JOHNDEERE            Bucket                                        https://www.farming-simulator.com/mod.php?lang=en&country=us&mod_id=282389&title=fs2022)
FS22_VolvoWia                                      (1981   trucks                    VOLVO                WIA                                           https://www.farming-simulator.com/mod.php?lang=en&country=us&mod_id=273737&title=fs2022)
FS22_JohnDeere_Weight_900                          (1981   weights                   JOHNDEERE            Weight 900                                    https://www.farming-simulator.com/mod.php?lang=en&country=us&mod_id=237845&title=fs2022)
FS22_weckmanWS130G                                 (1981   trailers                  WECKMAN              WS 130G                                       https://www.farming-simulator.com/mod.php?lang=en&country=us&mod_id=275640&title=fs2022)
FS22_International_2Plus2Series                    (1981   tractorsM                 INTERNATIONAL        Super 70 2+2 Series                           https://www.farming-simulator.com/mod.php?lang=en&country=us&mod_id=239597&title=fs2022)
FS22_Sip_Majevica_80                               (1981   harvesters                SIP                  Majevica 80                                   https://www.farming-simulator.com/mod.php?lang=en&country=us&mod_id=292669&title=fs2022)
FS22_PlantationTrailer                             (1981   wood                      LIZARD               $l10n_name_plantationtrailer                  https://www.farming-simulator.com/mod.php?lang=en&country=us&mod_id=242524&title=fs2022)
FS22_Lizard_D14000                                 (1981   animals                   LIZARD               Tank D14000                                   https://www.farming-simulator.com/mod.php?lang=en&country=us&mod_id=280071&title=fs2022)
FS22_LizardFSeries                                 (1981   lowloaders                LIZARD               Transport Platform                            https://www.farming-simulator.com/mod.php?lang=en&country=us&mod_id=263057&title=fs2022)
FS22_GrappleYarder                                 (1981   woodHarvesting            LIZARD               Grapple Yarder                                https://www.farming-simulator.com/mod.php?lang=en&country=us&mod_id=300428&title=fs2022)
FS22_poettingerHIT690N                             (1982   tedders                   POETTINGER           HIT 690 N/NZ                                  https://www.farming-simulator.com/mod.php?lang=en&country=us&mod_id=227734&title=fs2022)
FS22_Tatra815                                      (1982   manureSpreaders           TATRA                RM2-045                                       https://www.farming-simulator.com/mod.php?lang=en&country=us&mod_id=278430&title=fs2022)
FS22_JohnDeere_7000                                (1982   planters                  JOHNDEERE            7000 Planter                                  https://www.farming-simulator.com/mod.php?lang=en&country=us&mod_id=242376&title=fs2022)
FS22_knocheCWF300                                  (1982   rollers                   KNOCHE               CW-F300                                       https://www.farming-simulator.com/mod.php?lang=en&country=us&mod_id=230267&title=fs2022)
FS22_Lizard_T1800                                  (1982   misc                      LIZARD               T-1800                                        https://www.farming-simulator.com/mod.php?lang=en&country=us&mod_id=295864&title=fs2022)
FS22_Paladin_Walk_Thru_Forks                       (1982   skidSteerTools            PALADIN              Walk-Thru Fork                                https://www.farming-simulator.com/mod.php?lang=en&country=us&mod_id=264713&title=fs2022)
FS22_Kverneland4028                                (1982   mowers                    KVERNELAND           Taarup 4032                                   https://www.farming-simulator.com/mod.php?lang=en&country=us&mod_id=268946&title=fs2022)
FS22_BDM_3x4P_RAT                                  (1982   discHarrows               ROSTSELMASH          BDM 3x4P                                      https://www.farming-simulator.com/mod.php?lang=en&country=us&mod_id=238232&title=fs2022)
FS22_lizard_RDMR_300                               (1982   mowers                    LIZARD               RDMR 300                                      https://www.farming-simulator.com/mod.php?lang=en&country=us&mod_id=229228&title=fs2022)
FS22_LizardF10series                               (1982   tractorsS                 LIZARD               6610 4x2                                      https://www.farming-simulator.com/mod.php?lang=en&country=us&mod_id=297767&title=fs2022)
FS22_zetorCrystalPack                              (1983   tractorsS                 ZETOR                12111                                         https://www.farming-simulator.com/mod.php?lang=en&country=us&mod_id=269813&title=fs2022)
FS22_John_Deere_500                                (1983   augerWagons               JOHNDEERE            500                                           https://www.farming-simulator.com/mod.php?lang=en&country=us&mod_id=290018&title=fs2022)
FS22_ftgMohedaM151                                 (1983   wood                      FTGMOHEDA            M151-4WD                                      https://www.farming-simulator.com/mod.php?lang=en&country=us&mod_id=267414&title=fs2022)
FS22_Maxx_Trac_Dura_Tech                           (1983   slurryTanks               VALMETAL             Double Lower Spray                            https://www.farming-simulator.com/mod.php?lang=en&country=us&mod_id=272348&title=fs2022)
FS22_JohnDeere_712                                 (1983   plows                     JOHNDEERE            712 Mulch Tiller                              https://www.farming-simulator.com/mod.php?lang=en&country=us&mod_id=277592&title=fs2022)
FS22_Master120                                     (1983   plows                     HUARD                Master 120                                    https://www.farming-simulator.com/mod.php?lang=en&country=us&mod_id=261537&title=fs2022)
FS22_PCH_2_5                                       (1983   subsoilers                ROSTSELMASH          PCH-2,5                                       https://www.farming-simulator.com/mod.php?lang=en&country=us&mod_id=240779&title=fs2022)
FS22_MF600Series                                   (1983   tractorsS                 MASSEYFERGUSON       MF600 (2WD)                                   https://www.farming-simulator.com/mod.php?lang=en&country=us&mod_id=271815&title=fs2022)
FS22_FiatAllisAD9                                  (1983   leveler                   ALLIS                $l10n_Blade                                   https://www.farming-simulator.com/mod.php?lang=en&country=us&mod_id=261063&title=fs2022)
FS22_Case_W20E                                     (1983   wheelLoaderTools          CASEIH               Shell W20E                                    https://www.farming-simulator.com/mod.php?lang=en&country=us&mod_id=246667&title=fs2022)
FS22_ursus1014                                     (1984   tractorsS                 URSUS                1002                                          https://www.farming-simulator.com/mod.php?lang=en&country=us&mod_id=290566&title=fs2022)
FS22_ursus1614                                     (1984   tractorsS                 URSUS                1201                                          https://www.farming-simulator.com/mod.php?lang=en&country=us&mod_id=276467&title=fs2022)
FS22_Steiger_Tiger_IV_KP525_crossplay              (1984   tractorsL                 CASEIH               Steiger Tiger IV KP-525/ CaseIH 9190          https://www.farming-simulator.com/mod.php?lang=en&country=us&mod_id=269524&title=fs2022)
FS22_Fiatagri180_crossplay                         (1984   tractorsM                 FIATAGRI             180-90                                        https://www.farming-simulator.com/mod.php?lang=en&country=us&mod_id=276887&title=fs2022)
FS22_Zetor_62_7745                                 (1984   tractorsS                 ZETOR                62-7745                                       https://www.farming-simulator.com/mod.php?lang=en&country=us&mod_id=241538&title=fs2022)
FS22_ZT323                                         (1984   tractorsS                 FORTSCHRITT          ZT 320-A                                      https://www.farming-simulator.com/mod.php?lang=en&country=us&mod_id=237258&title=fs2022)
FS22_JohnDeere_1590                                (1984   seeders                   JOHNDEERE            1590 No Till Drill                            https://www.farming-simulator.com/mod.php?lang=en&country=us&mod_id=239469&title=fs2022)
FS22_Rabe_C85_40                                   (1984   plows                     RABE                 Condor C85-40                                 https://www.farming-simulator.com/mod.php?lang=en&country=us&mod_id=234116&title=fs2022)
FS22_Schlueter_2500_VL                             (1984   tractorsM                 SCHLUETER            $l10n_typeDesc_VL                             https://www.farming-simulator.com/mod.php?lang=en&country=us&mod_id=229734&title=fs2022)
FS22_agromaszAP_Pack                               (1985   cultivators               AGROMASZ             AP 21                                         https://www.farming-simulator.com/mod.php?lang=en&country=us&mod_id=264733&title=fs2022)
FS22_Krone_Trailer_Pack                            (1985   trailers                  KRONE                Emsland Tandemtrailer                         https://www.farming-simulator.com/mod.php?lang=en&country=us&mod_id=290768&title=fs2022)
FS22_caseIH1455XL                                  (1985   tractorsS                 CASEIH               1455 XL                                       https://www.farming-simulator.com/mod.php?lang=en&country=us&mod_id=228246&title=fs2022)
FS22_E303_Pack                                     (1985   misc                      FORTSCHRITT          AC-01                                         https://www.farming-simulator.com/mod.php?lang=en&country=us&mod_id=257985&title=fs2022)
FS22_AgriculturalPlank2                            (1985   lowloaders                LIZARD               Agricultural Plank                            https://www.farming-simulator.com/mod.php?lang=en&country=us&mod_id=272891&title=fs2022)
FS22_Zetor_5_6_modernization                       (1985   weights                   ZETOR                Weight                                        https://www.farming-simulator.com/mod.php?lang=en&country=us&mod_id=246309&title=fs2022)
FS22_Lizard_N035_RNW3                              (1985   fertilizerSpreaders       LIZARD               N-035 RNW-3                                   https://www.farming-simulator.com/mod.php?lang=en&country=us&mod_id=276475&title=fs2022)
FS22_LizardFS60                                    (1985   fertilizerSpreaders       LIZARD               FS60/2                                        https://www.farming-simulator.com/mod.php?lang=en&country=us&mod_id=249704&title=fs2022)
FS22_Lizard_FieldBin                               (1985   augerWagons               LIZARD               Field Bin                                     https://www.farming-simulator.com/mod.php?lang=en&country=us&mod_id=230326&title=fs2022)
FS22_Lizard_6522                                   (1985   trailers                  LIZARD               pz_33                                         https://www.farming-simulator.com/mod.php?lang=en&country=us&mod_id=275866&title=fs2022)
FS22_ChevroletD20_PC                               (1985   cars                      CHEVROLET            D20                                           https://www.farming-simulator.com/mod.php?lang=en&country=us&mod_id=248452&title=fs2022)
FS22_White_Field_Boss                              (1986   tractorsM                 WHITE                Field Boss Series 3                           https://www.farming-simulator.com/mod.php?lang=en&country=us&mod_id=262946&title=fs2022)
FS22_Valmet_880_980_Series                         (1986   tractorsS                 VALTRA               $l10n_shopItem_Valmet4x2                      https://www.farming-simulator.com/mod.php?lang=en&country=us&mod_id=259299&title=fs2022)
FS22_MF3000                                        (1986   tractorsS                 MASSEYFERGUSON       MF 3000                                       https://www.farming-simulator.com/mod.php?lang=en&country=us&mod_id=239230&title=fs2022)
FS22_bigBud450                                     (1986   tractorsL                 BIGBUD               450                                           https://www.farming-simulator.com/mod.php?lang=en&country=us&mod_id=244445&title=fs2022)
FS22_JohnDeere330LawnMower                         (1986   mowerVehicles             JOHNDEERE            330 Lawn Mower                                https://www.farming-simulator.com/mod.php?lang=en&country=us&mod_id=273094&title=fs2022)
FS22_Lizard_TMseries                               (1986   tractorsM                 LIZARD               TM                                            https://www.farming-simulator.com/mod.php?lang=en&country=us&mod_id=245461&title=fs2022)
FS22_NewHolland180_55                              (1986   tractorsM                 NEWHOLLAND           180-55                                        https://www.farming-simulator.com/mod.php?lang=en&country=us&mod_id=277730&title=fs2022)
FS22_MF_3000_Series                                (1987   tractorsS                 MASSEYFERGUSON       MF 3600                                       https://www.farming-simulator.com/mod.php?lang=en&country=us&mod_id=236502&title=fs2022)
FS22_Gyrax_EDHV155                                 (1987   manureSpreaders           GYRAX                EDHV 155                                      https://www.farming-simulator.com/mod.php?lang=en&country=us&mod_id=272436&title=fs2022)
FS22_Bizon_BS_Z110                                 (1987   cutters                   FMZ                  Bizon BS Z110 Cutter 4.2m                     https://www.farming-simulator.com/mod.php?lang=en&country=us&mod_id=238012&title=fs2022)
FS22_UniaTURPack                                   (1987   plows                     UNIA                 TUR 4                                         https://www.farming-simulator.com/mod.php?lang=en&country=us&mod_id=242893&title=fs2022)
FS22_LizardLogGrapplePack                          (1987   wood                      LIZARD               LG-H627                                       https://www.farming-simulator.com/mod.php?lang=en&country=us&mod_id=264699&title=fs2022)
FS22_Lizard_BS_Z110                                (1987   cutters                   LIZARD               BS Z110 Cutter 4.2m                           https://www.farming-simulator.com/mod.php?lang=en&country=us&mod_id=246136&title=fs2022)
FS22_PronarHW80SHA                                 (1988   trailers                  PRONAR               HW80 SHA                                      https://www.farming-simulator.com/mod.php?lang=en&country=us&mod_id=267315&title=fs2022)
FS22_NewHolland610cmHeaderPack                     (1988   cutterTrailers            NEWHOLLAND           6,1m Header Trailer                           https://www.farming-simulator.com/mod.php?lang=en&country=us&mod_id=247740&title=fs2022)
FS22_KingImplementos_Drax9000                      (1988   mulchers                  KINGIMPLEMENTOS      Rolo Faca Drax 9000                           https://www.farming-simulator.com/mod.php?lang=en&country=us&mod_id=271799&title=fs2022)
FS22_Jan_Sniper_11450                              (1988   planters                  JAN                  Sniper 11450                                  https://www.farming-simulator.com/mod.php?lang=en&country=us&mod_id=241756&title=fs2022)
FS22_CeresMaster3570                               (1988   seeders                   STARA                Ceres Master 3570                             https://www.farming-simulator.com/mod.php?lang=en&country=us&mod_id=265241&title=fs2022)
FS22_new_holland_tx32                              (1988   cutterTrailers            NEWHOLLAND           TX 32 %s                                      https://www.farming-simulator.com/mod.php?lang=en&country=us&mod_id=298613&title=fs2022)
FS22_kornikXL                                      (1988   mulchers                  UNIA                 Kornik XL 2.8                                 https://www.farming-simulator.com/mod.php?lang=en&country=us&mod_id=229461&title=fs2022)
FS22_ford10Series3                                 (1988   tractorsS                 FORD                 51-7610 Force III                             https://www.farming-simulator.com/mod.php?lang=en&country=us&mod_id=239345&title=fs2022)
FS22_Massey_Ferguson_108                           (1988   trailers                  MASSEYFERGUSON       108                                           https://www.farming-simulator.com/mod.php?lang=en&country=us&mod_id=290924&title=fs2022)
FS22_MackRS700LGrainHauler                         (1988   trucks                    MACK                 RS700L 6x4                                    https://www.farming-simulator.com/mod.php?lang=en&country=us&mod_id=241689&title=fs2022)
FS22_MF3640                                        (1988   cutters                   MASSEYFERGUSON       $l10n_name_plataforma                         https://www.farming-simulator.com/mod.php?lang=en&country=us&mod_id=262588&title=fs2022)
FS22_LIEBHERR_902_Pack                             (1988   misc                      LIEBHERR             $l10n_shopItem_frontloaderPalletFork          https://www.farming-simulator.com/mod.php?lang=en&country=us&mod_id=282878&title=fs2022)
FS22_JohnDeere_100Chisel                           (1988   plows                     JOHNDEERE            100 Chisel                                    https://www.farming-simulator.com/mod.php?lang=en&country=us&mod_id=274655&title=fs2022)
FS22_LizardRM5                                     (1988   misc                      LIZARD               RM5                                           https://www.farming-simulator.com/mod.php?lang=en&country=us&mod_id=245476&title=fs2022)
FS22_Fiatagri160_55                                (1988   tractorsM                 NEWHOLLAND           160-55                                        https://www.farming-simulator.com/mod.php?lang=en&country=us&mod_id=244898&title=fs2022)
FS22_LizardFrontloaderTools                        (1988   frontLoaderTools          LIZARD               $l10n_shopItem_frontloaderBaleFork            https://www.farming-simulator.com/mod.php?lang=en&country=us&mod_id=257847&title=fs2022)
FS22_Lizard_2200G                                  (1988   slurryTanks               LIZARD               2200G Slurry Tanker                           https://www.farming-simulator.com/mod.php?lang=en&country=us&mod_id=271740&title=fs2022)
FS22_SeppiM_MiniforstCL                            (1989   wood                      SEPPIM               Miniforst CL 175                              https://www.farming-simulator.com/mod.php?lang=en&country=us&mod_id=263636&title=fs2022)
FS22_E281_Pack                                     (1989   forageHarvesterCutters    FORTSCHRITT          E 294                                         https://www.farming-simulator.com/mod.php?lang=en&country=us&mod_id=242371&title=fs2022)
FS22_huerlimannH4105                               (1989   tractorsS                 HUERLIMANN           Elite E-4105                                  https://www.farming-simulator.com/mod.php?lang=en&country=us&mod_id=241064&title=fs2022)
FS22_Skidder_MF320                                 (1989   woodHarvesting            MASSEYFERGUSON       320                                           https://www.farming-simulator.com/mod.php?lang=en&country=us&mod_id=294780&title=fs2022)
FS22_Magsi_Interface                               (1989   teleLoaderTools           MAGSI                Interface                                     https://www.farming-simulator.com/mod.php?lang=en&country=us&mod_id=234807&title=fs2022)
FS22_HolarasJumbo                                  (1989   silocompaction            HOLARAS              Jumbo                                         https://www.farming-simulator.com/mod.php?lang=en&country=us&mod_id=242753&title=fs2022)
FS22_AGL                                           (1989   trucks                    LIZARD               LS 1114                                       https://www.farming-simulator.com/mod.php?lang=en&country=us&mod_id=287988&title=fs2022)
FS22_KongskildeHK30_NS3130                         (1989   seeders                   KONGSKILDE           HK 31 + NS 3130                               https://www.farming-simulator.com/mod.php?lang=en&country=us&mod_id=266955&title=fs2022)
