FS22_Randon1990                                    (1990   trailers                  RANDON               1990                                          https://www.farming-simulator.com/mod.php?lang=en&country=us&mod_id=295800&title=fs2022)
FS22_FendtLotus1250                                (1990   tedders                   FENDT                Lotus 1250                                    https://www.farming-simulator.com/mod.php?lang=en&country=us&mod_id=259403&title=fs2022)
FS22_kvernelandTLXGeospreadPack                    (1990   fertilizerSpreaders       KVERNELAND           Exacta TL GEOSPREAD                           https://www.farming-simulator.com/mod.php?lang=en&country=us&mod_id=238647&title=fs2022)
FS22_Paladin_Bucket                                (1990   skidSteerTools            PALADIN              Standard Bucket                               https://www.farming-simulator.com/mod.php?lang=en&country=us&mod_id=227382&title=fs2022)
FS22_MF_3000_Series                                (1990   tractorsS                 MASSEYFERGUSON       MF 3115                                       https://www.farming-simulator.com/mod.php?lang=en&country=us&mod_id=236502&title=fs2022)
FS22_BizonPack                                     (1990   harvesters                NEWHOLLAND           BIZON REKORD NH                               https://www.farming-simulator.com/mod.php?lang=en&country=us&mod_id=280667&title=fs2022)
FS22_kvernelandCLE430                              (1990   subsoilers                KVERNELAND           CLE 430/5                                     https://www.farming-simulator.com/mod.php?lang=en&country=us&mod_id=234644&title=fs2022)
FS22_JohnDeere8900series                           (1990   tractorsL                 JOHNDEERE            8960                                          https://www.farming-simulator.com/mod.php?lang=en&country=us&mod_id=230221&title=fs2022)
FS22_LizardCL42                                    (1990   misc                      LIZARD               Tandem CL 42                                  https://www.farming-simulator.com/mod.php?lang=en&country=us&mod_id=250942&title=fs2022)
FS22_kuhnSiteraPack                                (1990   seeders                   KUHN                 Sitera 3000                                   https://www.farming-simulator.com/mod.php?lang=en&country=us&mod_id=228543&title=fs2022)
FS22_ford40Sebra                                   (1991   tractorsS                 FORD                 40 Series Sebra                               https://www.farming-simulator.com/mod.php?lang=en&country=us&mod_id=238157&title=fs2022)
FS22_KrAZ                                          (1991   trucks                    KRAZ                 650322                                        https://www.farming-simulator.com/mod.php?lang=en&country=us&mod_id=285764&title=fs2022)
FS22_camara_rt16                                   (1992   trailers                  CAMARA               RT16                                          https://www.farming-simulator.com/mod.php?lang=en&country=us&mod_id=238599&title=fs2022)
FS22_bredalF2WS4000                                (1992   fertilizerSpreaders       BREDAL               F2WS 4000                                     https://www.farming-simulator.com/mod.php?lang=en&country=us&mod_id=225606&title=fs2022)
FS22_Valmet_880_980_Series                         (1992   tractorsS                 VALTRA               885s-ts Premium 4x4                           https://www.farming-simulator.com/mod.php?lang=en&country=us&mod_id=259299&title=fs2022)
FS22_New_Holland_TX66_crossplay                    (1992   cutters                   NEWHOLLAND           TX 66 Header                                  https://www.farming-simulator.com/mod.php?lang=en&country=us&mod_id=286194&title=fs2022)
FS22_Leboulch_goliath_54s17                        (1992   manureSpreaders           LEBOULCH             Goliath 54s17                                 https://www.farming-simulator.com/mod.php?lang=en&country=us&mod_id=257699&title=fs2022)
FS22_KTP_7x4_9x4_RAT                               (1992   cultivators               ROSTSELMASH          KTP 7.4                                       https://www.farming-simulator.com/mod.php?lang=en&country=us&mod_id=240502&title=fs2022)
FS22_D754_Pack                                     (1992   animals                   KUHN                 Knight RA 142 PF                              https://www.farming-simulator.com/mod.php?lang=en&country=us&mod_id=264282&title=fs2022)
FS22_ClaasJaguar810                                (1992   forageHarvesterCutters    CLAAS                PU300HD Pickup                                https://www.farming-simulator.com/mod.php?lang=en&country=us&mod_id=268551&title=fs2022)
FS22_ClaasJaguar695sl                              (1992   forageHarvesters          CLAAS                Jaguar 695                                    https://www.farming-simulator.com/mod.php?lang=en&country=us&mod_id=264414&title=fs2022)
FS22_tenwinkelWeightPaket                          (1992   weights                   TENWINKEL            1250                                          https://www.farming-simulator.com/mod.php?lang=en&country=us&mod_id=234672&title=fs2022)
FS22_caseIHAxialFlow2100Series                     (1992   cutterTrailers            CASEIH               1030 14FT/18FT Cutter Trailer                 https://www.farming-simulator.com/mod.php?lang=en&country=us&mod_id=231903&title=fs2022)
FS22_Dominator105                                  (1992   cutters                   CLAAS                C450                                          https://www.farming-simulator.com/mod.php?lang=en&country=us&mod_id=261219&title=fs2022)
FS22_DeutzFahr_M_Series                            (1992   harvesters                DEUTZFAHR            M Series                                      https://www.farming-simulator.com/mod.php?lang=en&country=us&mod_id=241302&title=fs2022)
FS22_DON_20_NPP_RAT                                (1992   augerWagons               ROSTSELMASH          DON 20 NPP                                    https://www.farming-simulator.com/mod.php?lang=en&country=us&mod_id=239931&title=fs2022)
FS22_JohnDeere_6300_6405                           (1992   tractorsS                 JOHNDEERE            6300                                          https://www.farming-simulator.com/mod.php?lang=en&country=us&mod_id=233664&title=fs2022)
FS22_BizonDynamic                                  (1992   harvesters                FMZ                  Bizon Dynamic                                 https://www.farming-simulator.com/mod.php?lang=en&country=us&mod_id=286038&title=fs2022)
FS22_MasseyFerguson_3600                           (1992   tractorsM                 MASSEYFERGUSON       MF 3670                                       https://www.farming-simulator.com/mod.php?lang=en&country=us&mod_id=225537&title=fs2022)
FS22_New_Holland_TX66                              (1992   harvesters                NEWHOLLAND           TX66                                          https://www.farming-simulator.com/mod.php?lang=en&country=us&mod_id=279313&title=fs2022)
FS22_Case_IH_490                                   (1993   discHarrows               CASEIH               490                                           https://www.farming-simulator.com/mod.php?lang=en&country=us&mod_id=276851&title=fs2022)
FS22_NewHolland_70_series                          (1993   tractorsL                 NEWHOLLAND           70 Series                                     https://www.farming-simulator.com/mod.php?lang=en&country=us&mod_id=226791&title=fs2022)
FS22_LizardAta14_JDM                               (1993   augerWagons               LIZARD               Ata 14                                        https://www.farming-simulator.com/mod.php?lang=en&country=us&mod_id=280240&title=fs2022)
FS22_EasyForks                                     (1993   wheelLoaderTools          MAGSI                $l10n_shopItem_wheelLoaderFork                https://www.farming-simulator.com/mod.php?lang=en&country=us&mod_id=227640&title=fs2022)
FS22_MF5650                                        (1994   cornHeaders               MASSEYFERGUSON       Cyclone 3010 L                                https://www.farming-simulator.com/mod.php?lang=en&country=us&mod_id=268780&title=fs2022)
FS22_caseIH_Magnum7240Pro                          (1994   tractorsM                 CASEIH               7200 Pro Series                               https://www.farming-simulator.com/mod.php?lang=en&country=us&mod_id=265165&title=fs2022)
FS22_deutzAgroStar681                              (1994   tractorsM                 DEUTZFAHR            AgroStar 6.71                                 https://www.farming-simulator.com/mod.php?lang=en&country=us&mod_id=277286&title=fs2022)
FS22_claasDominator108SL                           (1994   cutterTrailers            CLAAS                C510 %s                                       https://www.farming-simulator.com/mod.php?lang=en&country=us&mod_id=223847&title=fs2022)
FS22_casemagnum7200Series                          (1994   tractorsM                 CASEIH               7200 Series                                   https://www.farming-simulator.com/mod.php?lang=en&country=us&mod_id=225732&title=fs2022)
FS22_SteyrCasePack                                 (1994   tractorsS                 STEYR                900 Series                                    https://www.farming-simulator.com/mod.php?lang=en&country=us&mod_id=233948&title=fs2022)
FS22_claasCHeadersPack                             (1994   cutters                   CLAAS                C510                                          https://www.farming-simulator.com/mod.php?lang=en&country=us&mod_id=250262&title=fs2022)
FS22_lizard_rt24                                   (1994   trailers                  LIZARD               RT24                                          https://www.farming-simulator.com/mod.php?lang=en&country=us&mod_id=269419&title=fs2022)
FS22_TajfunEGV80AHK                                (1994   wood                      TAJFUNOLD            EGV 80 AHK                                    https://www.farming-simulator.com/mod.php?lang=en&country=us&mod_id=230416&title=fs2022)
FS22_poettingerTopPack                             (1995   windrowers                POETTINGER           EUROTOP 340                                   https://www.farming-simulator.com/mod.php?lang=en&country=us&mod_id=245142&title=fs2022)
FS22_bunningLowlanderMk4                           (1995   manureSpreaders           BUNNING              Lowlander Mk4 105                             https://www.farming-simulator.com/mod.php?lang=en&country=us&mod_id=268953&title=fs2022)
FS22_poettingerTop722                              (1995   windrowers                POETTINGER           TOP 722                                       https://www.farming-simulator.com/mod.php?lang=en&country=us&mod_id=248002&title=fs2022)
FS22_poettingerTop612C                             (1995   windrowers                POETTINGER           TOP 612 C                                     https://www.farming-simulator.com/mod.php?lang=en&country=us&mod_id=280144&title=fs2022)
FS22_fendtPlatformGTA                              (1995   misc                      FENDT                GTA %s                                        https://www.farming-simulator.com/mod.php?lang=en&country=us&mod_id=299723&title=fs2022)
FS22_Valtra_Pack                                   (1995   tractorsM                 VALTRA               Valmet 8750                                   https://www.farming-simulator.com/mod.php?lang=en&country=us&mod_id=255556&title=fs2022)
FS22_LandRoverDefender90                           (1995   cars                      LANDROVER            Defender 90                                   https://www.farming-simulator.com/mod.php?lang=en&country=us&mod_id=250953&title=fs2022)
FS22_RoundBalesTrailer                             (1995   baleLoaders               LIZARD               $l10n_shopItem_trailer                        https://www.farming-simulator.com/mod.php?lang=en&country=us&mod_id=267591&title=fs2022)
FS22_LizardLH_10                                   (1995   plows                     LIZARD               LH 10                                         https://www.farming-simulator.com/mod.php?lang=en&country=us&mod_id=273613&title=fs2022)
FS22_trailedLifter                                 (1995   misc                      GREGOIREBESSON       Trailed Lifter                                https://www.farming-simulator.com/mod.php?lang=en&country=us&mod_id=225935&title=fs2022)
FS22_fendtFarmConPack                              (1995   frontLoaders              FENDT                Xylon %s                                      https://www.farming-simulator.com/mod.php?lang=en&country=us&mod_id=295100&title=fs2022)
FS22_deutzStarliner4045H                           (1995   harvesters                DEUTZFAHR            Starliner 4045H                               https://www.farming-simulator.com/mod.php?lang=en&country=us&mod_id=232414&title=fs2022)
FS22_baarckAckerAss63WS                            (1995   rollers                   BAARCK               Acker-Ass 6.3 W                               https://www.farming-simulator.com/mod.php?lang=en&country=us&mod_id=263212&title=fs2022)
FS22_SlcJohnDeere1175                              (1995   cornHeaders               JOHNDEERE            Slc 205                                       https://www.farming-simulator.com/mod.php?lang=en&country=us&mod_id=259321&title=fs2022)
FS22_Hesston4900Baler                              (1995   balers                    HESSTON              4900                                          https://www.farming-simulator.com/mod.php?lang=en&country=us&mod_id=275534&title=fs2022)
FS22_Bizon_BS_Z110                                 (1995   harvesters                FMZ                  Bizon BS Z110 engine Z8604                    https://www.farming-simulator.com/mod.php?lang=en&country=us&mod_id=238012&title=fs2022)
FS22_RauPolymag300                                 (1995   cultivators               RAU                  Polymag 300                                   https://www.farming-simulator.com/mod.php?lang=en&country=us&mod_id=226072&title=fs2022)
FS22_greatPlains3P1006NT                           (1996   seeders                   GREATPLAINS          3P1006NT                                      https://www.farming-simulator.com/mod.php?lang=en&country=us&mod_id=226637&title=fs2022)
FS22_VersatileNH                                   (1996   tractorsL                 NEWHOLLAND           9X8X                                          https://www.farming-simulator.com/mod.php?lang=en&country=us&mod_id=230396&title=fs2022)
FS22_JDBalers                                      (1996   balers                    JOHNDEERE            100                                           https://www.farming-simulator.com/mod.php?lang=en&country=us&mod_id=248825&title=fs2022)
FS22_Fendt500Favorit                               (1996   tractorsS                 FENDT                500 Favorit                                   https://www.farming-simulator.com/mod.php?lang=en&country=us&mod_id=230370&title=fs2022)
FS22_ClaasJaguar800                                (1996   forageHarvesterCutters    CLAAS                RU450                                         https://www.farming-simulator.com/mod.php?lang=en&country=us&mod_id=265996&title=fs2022)
FS22_Bobcat863Pack                                 (1996   skidSteerTools            BOBCAT               Shovel                                        https://www.farming-simulator.com/mod.php?lang=en&country=us&mod_id=240053&title=fs2022)
FS22_lexion400                                     (1996   cutters                   CLAAS                V600                                          https://www.farming-simulator.com/mod.php?lang=en&country=us&mod_id=272409&title=fs2022)
FS22_duportPTW12500                                (1996   slurryTanks               DUPORT               PTW12500                                      https://www.farming-simulator.com/mod.php?lang=en&country=us&mod_id=227765&title=fs2022)
FS22_Ponsse_Harvester_Pack                         (1996   woodHarvesting            PONSSE               Ergo 6 Wheel                                  https://www.farming-simulator.com/mod.php?lang=en&country=us&mod_id=246379&title=fs2022)
FS22_LizardTSerie2                                 (1996   trucks                    LIZARD               T 112                                         https://www.farming-simulator.com/mod.php?lang=en&country=us&mod_id=294202&title=fs2022)
FS22_CaseIH_890Loader                              (1997   frontLoaderTools          CASEIH               $l10n_shopItem_frontloaderBaleFork            https://www.farming-simulator.com/mod.php?lang=en&country=us&mod_id=258666&title=fs2022)
FS22_caseIHMagnum8900                              (1997   tractorsM                 CASEIH               8900 Series                                   https://www.farming-simulator.com/mod.php?lang=en&country=us&mod_id=251935&title=fs2022)
FS22_Liebherr_622A                                 (1997   plows                     LIEBHERR             Plow 3                                        https://www.farming-simulator.com/mod.php?lang=en&country=us&mod_id=244270&title=fs2022)
FS22_JohnDeere_9600_9100                           (1997   harvesters                JOHNDEERE            John Deere 9600-9610                          https://www.farming-simulator.com/mod.php?lang=en&country=us&mod_id=241260&title=fs2022)
FS22_JD_7810_US                                    (1997   tractorsM                 JOHNDEERE            7810 Row Crop                                 https://www.farming-simulator.com/mod.php?lang=en&country=us&mod_id=242543&title=fs2022)
FS22_ClaasXerion2500                               (1997   tractorsL                 CLAAS                Xerion 2500/3000                              https://www.farming-simulator.com/mod.php?lang=en&country=us&mod_id=287749&title=fs2022)
FS22_SonarolEquipmentPack                          (1997   frontLoaderTools          SONAROL              CBE SNR1500                                   https://www.farming-simulator.com/mod.php?lang=en&country=us&mod_id=279389&title=fs2022)
FS22_MAN_19_403                                    (1997   trucks                    MAN                  19.403                                        https://www.farming-simulator.com/mod.php?lang=en&country=us&mod_id=293514&title=fs2022)
FS22_MAN_19_322                                    (1997   trucks                    MAN                  19.322                                        https://www.farming-simulator.com/mod.php?lang=en&country=us&mod_id=298556&title=fs2022)
FS22_JohnDeere7010Series                           (1997   tractorsM                 JOHNDEERE            7010                                          https://www.farming-simulator.com/mod.php?lang=en&country=us&mod_id=227917&title=fs2022)
FS22_annaburgerHTDPack                             (1998   dollys                    ANNABURGER           DTS 12.00                                     https://www.farming-simulator.com/mod.php?lang=en&country=us&mod_id=255547&title=fs2022)
FS22_ClaasRollant250RC                             (1998   balers                    CLAAS                250 Roto Cut                                  https://www.farming-simulator.com/mod.php?lang=en&country=us&mod_id=245031&title=fs2022)
FS22_Lizard5000L_MFS                               (1998   misc                      LIZARD               Lizard 5000L fuel tank                        https://www.farming-simulator.com/mod.php?lang=en&country=us&mod_id=296060&title=fs2022)
FS22_kotteGarantVE8000                             (1998   slurryTanks               KOTTE                VE 8000                                       https://www.farming-simulator.com/mod.php?lang=en&country=us&mod_id=266597&title=fs2022)
FS22_NamysloSharp600                               (1998   cultivators               NAMYSLO              Sharp 600                                     https://www.farming-simulator.com/mod.php?lang=en&country=us&mod_id=291627&title=fs2022)
FS22_NH_TSSeries                                   (1998   tractorsS                 NEWHOLLAND           TS Series                                     https://www.farming-simulator.com/mod.php?lang=en&country=us&mod_id=239523&title=fs2022)
FS22_875                                           (1998   augerWagons               LIZARD               875                                           https://www.farming-simulator.com/mod.php?lang=en&country=us&mod_id=295258&title=fs2022)
FS22_wifoBPseries                                  (1998   frontLoaderTools          WIFO                 BP Series                                     https://www.farming-simulator.com/mod.php?lang=en&country=us&mod_id=247330&title=fs2022)
FS22_StepaFHL13AK                                  (1998   wood                      STEPA                FHL 13 AK                                     https://www.farming-simulator.com/mod.php?lang=en&country=us&mod_id=228949&title=fs2022)
FS22_2PTS_11_SARMAT                                (1998   trailers                  SARMAT               2PTS-11 "SARMAT"                              https://www.farming-simulator.com/mod.php?lang=en&country=us&mod_id=236181&title=fs2022)
FS22_ValentiniMammutSeries                         (1999   powerHarrows              VALENTINI            Mammut 7000                                   https://www.farming-simulator.com/mod.php?lang=en&country=us&mod_id=288982&title=fs2022)
FS22_ValentiniDiablo_Series                        (1999   powerHarrows              VALENTINI            Diablo Series                                 https://www.farming-simulator.com/mod.php?lang=en&country=us&mod_id=282837&title=fs2022)
FS22_Fendt_weights                                 (1999   weights                   FENDT                1800                                          https://www.farming-simulator.com/mod.php?lang=en&country=us&mod_id=225640&title=fs2022)
FS22_FendtWeightsPack                              (1999   weights                   FENDT                2500                                          https://www.farming-simulator.com/mod.php?lang=en&country=us&mod_id=258094&title=fs2022)
FS22_QuivognePack                                  (1999   discHarrows               QUIVOGNE             Diskator 12                                   https://www.farming-simulator.com/mod.php?lang=en&country=us&mod_id=279995&title=fs2022)
FS22_HaweULW_3500                                  (1999   augerWagons               HAWE                 ULW 3500TA                                    https://www.farming-simulator.com/mod.php?lang=en&country=us&mod_id=230165&title=fs2022)
FS22_Case_IH_770                                   (1999   discHarrows               CASEIH               770                                           https://www.farming-simulator.com/mod.php?lang=en&country=us&mod_id=289263&title=fs2022)
FS22_samaszAlps331                                 (1999   winterEquipment           SAMASZ               ALPS 331                                      https://www.farming-simulator.com/mod.php?lang=en&country=us&mod_id=279621&title=fs2022)
FS22_gregoireBessonSPSL9                           (1999   misc                      GREGOIREBESSON       TRAILED LIFTER                                https://www.farming-simulator.com/mod.php?lang=en&country=us&mod_id=244449&title=fs2022)
FS22_TrefflerTG615                                 (1999   cultivators               TREFFLER             TG 615                                        https://www.farming-simulator.com/mod.php?lang=en&country=us&mod_id=226872&title=fs2022)
