FS22_2wheelbarrow                                  (1172   miscVehicles              LIZARD               Two-wheel barrow                              https://www.farming-simulator.com/mod.php?lang=en&country=us&mod_id=285173&title=fs2022)
FS22_bucket                                        (1300   misc                      LIZARD               $l10n_wiadro                                  https://www.farming-simulator.com/mod.php?lang=en&country=us&mod_id=252917&title=fs2022)
FS22_ChickenCrate                                  (1800   animalTransport           LIZARD               Chicken Transport Crate                       https://www.farming-simulator.com/mod.php?lang=en&country=us&mod_id=244899&title=fs2022)
FS22_Drawbar                                       (1900   misc                      AGCO                 Drawbar                                       https://www.farming-simulator.com/mod.php?lang=en&country=us&mod_id=233662&title=fs2022)
FS22_ManualPlanter                                 (1900   planters                  LIZARD               $l10n_name_manualPlanter                      https://www.farming-simulator.com/mod.php?lang=en&country=us&mod_id=263088&title=fs2022)
FS22_Lizard_VintageMower                           (1902   mowerVehicles             LIZARD               Vintage Mower                                 https://www.farming-simulator.com/mod.php?lang=en&country=us&mod_id=276664&title=fs2022)
FS22_KOS_N015                                      (1930   fertilizerSpreaders       AGROMET              N015 "KOS"                                    https://www.farming-simulator.com/mod.php?lang=en&country=us&mod_id=268801&title=fs2022)
FS22_Lizard_Spreader                               (1930   fertilizerSpreaders       LIZARD               330                                           https://www.farming-simulator.com/mod.php?lang=en&country=us&mod_id=267863&title=fs2022)
FS22_twoRowPlanter                                 (1930   planters                  LIZARD               2R-100DG                                      https://www.farming-simulator.com/mod.php?lang=en&country=us&mod_id=228395&title=fs2022)
FS22_WoodManureBarrel                              (1930   animals                   LIZARD               Wood Water Trailer                            https://www.farming-simulator.com/mod.php?lang=en&country=us&mod_id=280621&title=fs2022)
FS22_ClassicBarrel                                 (1930   animals                   LIZARD               Classic Barrel (for water)                    https://www.farming-simulator.com/mod.php?lang=en&country=us&mod_id=260710&title=fs2022)
FS22_OldWaterTrailer                               (1930   animals                   LIZARD               Water trailer                                 https://www.farming-simulator.com/mod.php?lang=en&country=us&mod_id=225895&title=fs2022)
FS22_zjv3                                          (1932   animals                   LIZARD               ZJV-F-3.0                                     https://www.farming-simulator.com/mod.php?lang=en&country=us&mod_id=241361&title=fs2022)
FS22_zjv                                           (1932   slurryTanks               LIZARD               ZJV-F-3.2                                     https://www.farming-simulator.com/mod.php?lang=en&country=us&mod_id=240740&title=fs2022)
FS22_Z036_Meduza                                   (1933   mowers                    LIZARD               Z036 "Meduza"                                 https://www.farming-simulator.com/mod.php?lang=en&country=us&mod_id=275406&title=fs2022)
FS22_LizardGHCAvare                                (1933   mowers                    LIZARD               GHC Avare                                     https://www.farming-simulator.com/mod.php?lang=en&country=us&mod_id=246182&title=fs2022)
FS22_JohnDeereA                                    (1934   tractorsS                 JOHNDEERE            A                                             https://www.farming-simulator.com/mod.php?lang=en&country=us&mod_id=262209&title=fs2022)
FS22_JohnDeereModelA                               (1934   tractorsS                 JOHNDEERE            Model A                                       https://www.farming-simulator.com/mod.php?lang=en&country=us&mod_id=288951&title=fs2022)
FS22_JohnDeereAOS                                  (1935   tractorsS                 JOHNDEERE            AOS                                           https://www.farming-simulator.com/mod.php?lang=en&country=us&mod_id=293863&title=fs2022)
FS22_Lizard_Gucio_N026                             (1935   fertilizerSpreaders       LIZARD               Gucio NO-26                                   https://www.farming-simulator.com/mod.php?lang=en&country=us&mod_id=238187&title=fs2022)
FS22_WoodenTrailer                                 (1935   trailers                  LIZARD               Wooden Trailer                                https://www.farming-simulator.com/mod.php?lang=en&country=us&mod_id=273478&title=fs2022)
FS22_mcCormickW4                                   (1939   tractorsS                 MCCORMICK            McCormick W4                                  https://www.farming-simulator.com/mod.php?lang=en&country=us&mod_id=263431&title=fs2022)
FS22_IH_Farmall_H                                  (1939   tractorsS                 INTERNATIONAL        Farmall H                                     https://www.farming-simulator.com/mod.php?lang=en&country=us&mod_id=246279&title=fs2022)
FS22_Farmall_M                                     (1939   tractorsS                 INTERNATIONAL        Farmall M                                     https://www.farming-simulator.com/mod.php?lang=en&country=us&mod_id=258384&title=fs2022)
FS22_Agromet_Z034_Osa2                             (1940   mowers                    AGROMET              Z034 Osa 2                                    https://www.farming-simulator.com/mod.php?lang=en&country=us&mod_id=254394&title=fs2022)
FS22_Kazahstan                                     (1940   leveler                   ROSTSELMASH          Leveler                                       https://www.farming-simulator.com/mod.php?lang=en&country=us&mod_id=242914&title=fs2022)
FS22_Unia_PZ_pack                                  (1940   misc                      UNIA                 $l10n_kol                                     https://www.farming-simulator.com/mod.php?lang=en&country=us&mod_id=251945&title=fs2022)
FS22_LizardS069_crossplay                          (1940   seeders                   LIZARD               S-069/1                                       https://www.farming-simulator.com/mod.php?lang=en&country=us&mod_id=271362&title=fs2022)
FS22_LizardN012                                    (1940   fertilizerSpreaders       LIZARD               N012                                          https://www.farming-simulator.com/mod.php?lang=en&country=us&mod_id=226866&title=fs2022)
FS22_UniaGrudziadzU601                             (1940   grasslandCare             UNIA                 Grudziadz U601                                https://www.farming-simulator.com/mod.php?lang=en&country=us&mod_id=238591&title=fs2022)
FS22_ElhoJM2                                       (1940   baleLoaders               ELHO                 JM2                                           https://www.farming-simulator.com/mod.php?lang=en&country=us&mod_id=229822&title=fs2022)
FS22_concreteRolls                                 (1940   grasslandCare             LIZARD               $l10n_concrete_roller                         https://www.farming-simulator.com/mod.php?lang=en&country=us&mod_id=227488&title=fs2022)
FS22_ORZ300A                                       (1944   sprayers                  LIZARD               ORZ-300A                                      https://www.farming-simulator.com/mod.php?lang=en&country=us&mod_id=267116&title=fs2022)
FS22_LizardST2000                                  (1944   slurryTanks               LIZARD               ST2000                                        https://www.farming-simulator.com/mod.php?lang=en&country=us&mod_id=265746&title=fs2022)
FS22_lizard_pn20                                   (1944   slurryTanks               LIZARD               PN-20/1                                       https://www.farming-simulator.com/mod.php?lang=en&country=us&mod_id=236067&title=fs2022)
FS22_Sam3M                                         (1945   cultivators               LIZARD               Sam 3M                                        https://www.farming-simulator.com/mod.php?lang=en&country=us&mod_id=226391&title=fs2022)
FS22_BTJZ2                                         (1945   discHarrows               LIZARD               BTJZ-2                                        https://www.farming-simulator.com/mod.php?lang=en&country=us&mod_id=268686&title=fs2022)
FS22_LizardZ229                                    (1945   tedders                   LIZARD               Z-229                                         https://www.farming-simulator.com/mod.php?lang=en&country=us&mod_id=254451&title=fs2022)
FS22_TrafficPack                                   (1945   misc                      LIZARD               Concrete Road Barricade                       https://www.farming-simulator.com/mod.php?lang=en&country=us&mod_id=295736&title=fs2022)
FS22_Lizard_Hamezad                                (1945   potatoHarvesting          LIZARD               150                                           https://www.farming-simulator.com/mod.php?lang=en&country=us&mod_id=270514&title=fs2022)
FS22_oldCambrideRollers                            (1945   rollers                   LIZARD               Cambridge Roller                              https://www.farming-simulator.com/mod.php?lang=en&country=us&mod_id=244286&title=fs2022)
FS22_LizardRural_F75                               (1946   cars                      LIZARD               Pickup Rural F75                              https://www.farming-simulator.com/mod.php?lang=en&country=us&mod_id=281840&title=fs2022)
FS22_UniaGrudziadzU0xxPack                         (1948   misc                      UNIA                 $l10n_kolczatka                               https://www.farming-simulator.com/mod.php?lang=en&country=us&mod_id=252554&title=fs2022)
FS22_UniaGrudziadz3                                (1948   plows                     UNIA                 Grudziądz 3                                   https://www.farming-simulator.com/mod.php?lang=en&country=us&mod_id=225521&title=fs2022)
FS22_Lemken_d24                                    (1948   plows                     LEMKEN               D24                                           https://www.farming-simulator.com/mod.php?lang=en&country=us&mod_id=227062&title=fs2022)
FS22_UNIA_PZ_3                                     (1948   plows                     UNIA                 PZ-3                                          https://www.farming-simulator.com/mod.php?lang=en&country=us&mod_id=255852&title=fs2022)
FS22_UNIA_PZ_1                                     (1948   plows                     UNIA                 PZ-1                                          https://www.farming-simulator.com/mod.php?lang=en&country=us&mod_id=258953&title=fs2022)
FS22_Harrows_U211_2                                (1948   cultivators               LIZARD               Harrows U211/2                                https://www.farming-simulator.com/mod.php?lang=en&country=us&mod_id=236644&title=fs2022)
FS22_AgrometFz105                                  (1949   mowers                    AGROMET              Z105/1                                        https://www.farming-simulator.com/mod.php?lang=en&country=us&mod_id=257088&title=fs2022)
FS22_UniaG_U023                                    (1949   plows                     UNIA                 Grudziadz U-023/1                             https://www.farming-simulator.com/mod.php?lang=en&country=us&mod_id=237491&title=fs2022)
FS22_SF4T                                          (1949   trailers                  LIZARD               SF 4T                                         https://www.farming-simulator.com/mod.php?lang=en&country=us&mod_id=297978&title=fs2022)
FS22_lizardHarrows5                                (1949   cultivators               LIZARD               Harrow 3                                      https://www.farming-simulator.com/mod.php?lang=en&country=us&mod_id=246619&title=fs2022)
FS22_Z283                                          (1949   tedders                   LIZARD               Z283                                          https://www.farming-simulator.com/mod.php?lang=en&country=us&mod_id=255084&title=fs2022)
FS22_Lizard_RingRoller_pack                        (1949   rollers                   LIZARD               RingRoller                                    https://www.farming-simulator.com/mod.php?lang=en&country=us&mod_id=244845&title=fs2022)
